Chapter 3
…
2023-04-21

Data Visualization

A practical Introduction

By Kieran Healy

library(gapminder)
library(tidyverse)
library(ggplot2)
library(socviz)
gapminder

## # A tibble: 1,704 x 6
##    country     continent  year lifeExp      pop gdpPercap
##    <fct>       <fct>     <int>   <dbl>    <int>     <dbl>
##  1 Afghanistan Asia       1952    28.8  8425333      779.
##  2 Afghanistan Asia       1957    30.3  9240934      821.
##  3 Afghanistan Asia       1962    32.0 10267083      853.
##  4 Afghanistan Asia       1967    34.0 11537966      836.
##  5 Afghanistan Asia       1972    36.1 13079460      740.
##  6 Afghanistan Asia       1977    38.4 14880372      786.
##  7 Afghanistan Asia       1982    39.9 12881816      978.
##  8 Afghanistan Asia       1987    40.8 13867957      852.
##  9 Afghanistan Asia       1992    41.7 16317921      649.
## 10 Afghanistan Asia       1997    41.8 22227415      635.
## # i 1,694 more rows
…
oecd_sum

## # A tibble: 57 x 5
## # Groups:   year [57]
##     year other   usa  diff hi_lo
##    <int> <dbl> <dbl> <dbl> <chr>
##  1  1960  68.6  69.9 1.30  Below
##  2  1961  69.2  70.4 1.20  Below
##  3  1962  68.9  70.2 1.30  Below
##  4  1963  69.1  70   0.900 Below
##  5  1964  69.5  70.3 0.800 Below
##  6  1965  69.6  70.3 0.700 Below
##  7  1966  69.9  70.3 0.400 Below
##  8  1967  70.1  70.7 0.600 Below
##  9  1968  70.1  70.4 0.300 Below
## 10  1969  70.1  70.6 0.5   Below
## # i 47 more rows
…
UUuuu, I like that.

6. geom_density_2d()

midwest

## # A tibble: 437 x 28
##      PID county  state  area poptotal popdensity popwhite popblack popamerindian
##    <int> <chr>   <chr> <dbl>    <int>      <dbl>    <int>    <int>         <int>
##  1   561 ADAMS   IL    0.052    66090      1271.    63917     1702            98
##  2   562 ALEXAN~ IL    0.014    10626       759      7054     3496            19
##  3   563 BOND    IL    0.022    14991       681.    14477      429            35
##  4   564 BOONE   IL    0.017    30806      1812.    29344      127            46
##  5   565 BROWN   IL    0.018     5836       324.     5264      547            14
##  6   566 BUREAU  IL    0.05     35688       714.    35157       50            65
##  7   567 CALHOUN IL    0.017     5322       313.     5298        1             8
##  8   568 CARROLL IL    0.027    16805       622.    16519      111            30
##  9   569 CASS    IL    0.024    13437       560.    13384       16             8
## 10   570 CHAMPA~ IL    0.058   173025      2983.   146506    16559           331
## # i 427 more rows
## # i 19 more variables: popasian <int>, popother <int>, percwhite <dbl>,
## #   percblack <dbl>, percamerindan <dbl>, percasian <dbl>, percother <dbl>,
## #   popadults <int>, perchsd <dbl>, percollege <dbl>, percprof <dbl>,
## #   poppovertyknown <int>, percpovertyknown <dbl>, percbelowpoverty <dbl>,
## #   percchildbelowpovert <dbl>, percadultpoverty <dbl>,
## #   percelderlypoverty <dbl>, inmetro <int>, category <chr>
…
