Chapter 5
…
rel_by_region = gss_sm %>%
  group_by(bigregion, religion) %>%
  summarize(N = n()) %>%
  mutate(freq = N / sum(N),
         pct = round((freq*100), 0) )
rel_by_region

## # A tibble: 24 x 5
## # Groups:   bigregion [4]
##    bigregion religion       N    freq   pct
##    <fct>     <fct>      <int>   <dbl> <dbl>
##  1 Northeast Protestant   158 0.324      32
##  2 Northeast Catholic     162 0.332      33
##  3 Northeast Jewish        27 0.0553      6
##  4 Northeast None         112 0.230      23
##  5 Northeast Other         28 0.0574      6
##  6 Northeast <NA>           1 0.00205     0
##  7 Midwest   Protestant   325 0.468      47
##  8 Midwest   Catholic     172 0.247      25
##  9 Midwest   Jewish         3 0.00432     0
## 10 Midwest   None         157 0.226      23
## # i 14 more rows

rel_by_region_2 = gss_sm %>%
  group_by(bigregion, religion) %>%
  summarize(N = n())
rel_by_region_2

## # A tibble: 24 x 3
## # Groups:   bigregion [4]
##    bigregion religion       N
##    <fct>     <fct>      <int>
##  1 Northeast Protestant   158
##  2 Northeast Catholic     162
##  3 Northeast Jewish        27
##  4 Northeast None         112
##  5 Northeast Other         28
##  6 Northeast <NA>           1
##  7 Midwest   Protestant   325
##  8 Midwest   Catholic     172
##  9 Midwest   Jewish         3
## 10 Midwest   None         157
## # i 14 more rows
…
by_year = organdata %>% group_by(consent_law, year) %>%
  summarize(donors_mean = mean(donors, na.rm = TRUE),
            donors_sd = sd(donors, na.rm = TRUE),
            gdp_mean = mean(gdp, na.rm = TRUE),
            health_mean = mean(health, na.rm = TRUE),
            roads_mean = mean(roads, na.rm = TRUE),
            cerebvas_mean = mean(cerebvas, na.rm = TRUE))

by_year

## # A tibble: 26 x 8
## # Groups:   consent_law [2]
##    consent_law year       donors_mean donors_sd gdp_mean health_mean roads_mean
##    <chr>       <date>           <dbl>     <dbl>    <dbl>       <dbl>      <dbl>
##  1 Informed    1991-01-01        14.7      2.58   18160.       1642.      121. 
##  2 Informed    1992-01-01        15.2      2.44   19001.       1752.      113. 
##  3 Informed    1993-01-01        15.0      1.99   19657.       1829.      111. 
##  4 Informed    1994-01-01        14.5      3.49   20724.       1912.      108. 
##  5 Informed    1995-01-01        15.6      4.60   21789.       1996.      110. 
##  6 Informed    1996-01-01        14.6      2.85   22724.       2080.      105. 
##  7 Informed    1997-01-01        14.7      3.82   24084.       2169.      102. 
##  8 Informed    1998-01-01        14.8      4.86   25214.       2273.       97.9
##  9 Informed    1999-01-01        14.1      3.99   26458        2404.       96.2
## 10 Informed    2000-01-01        14.4      3.52   27841.       2532.       95.7
## # i 16 more rows
## # i 1 more variable: cerebvas_mean <dbl>
…
elections_historic %>% select(2:7)

## # A tibble: 49 x 6
##     year winner                 win_party ec_pct popular_pct popular_margin
##    <int> <chr>                  <chr>      <dbl>       <dbl>          <dbl>
##  1  1824 John Quincy Adams      D.-R.      0.322       0.309        -0.104 
##  2  1828 Andrew Jackson         Dem.       0.682       0.559         0.122 
##  3  1832 Andrew Jackson         Dem.       0.766       0.547         0.178 
##  4  1836 Martin Van Buren       Dem.       0.578       0.508         0.142 
##  5  1840 William Henry Harrison Whig       0.796       0.529         0.0605
##  6  1844 James Polk             Dem.       0.618       0.495         0.0145
##  7  1848 Zachary Taylor         Whig       0.562       0.473         0.0479
##  8  1852 Franklin Pierce        Dem.       0.858       0.508         0.0695
##  9  1856 James Buchanan         Dem.       0.588       0.453         0.122 
## 10  1860 Abraham Lincoln        Rep.       0.594       0.396         0.101 
## # i 39 more rows
…
Chapter 5.7

1. Subset()

elections_historic

## # A tibble: 49 x 19
##    election  year winner      win_party ec_pct popular_pct popular_margin  votes
##       <int> <int> <chr>       <chr>      <dbl>       <dbl>          <dbl>  <int>
##  1       10  1824 John Quinc~ D.-R.      0.322       0.309        -0.104  1.13e5
##  2       11  1828 Andrew Jac~ Dem.       0.682       0.559         0.122  6.43e5
##  3       12  1832 Andrew Jac~ Dem.       0.766       0.547         0.178  7.03e5
##  4       13  1836 Martin Van~ Dem.       0.578       0.508         0.142  7.63e5
##  5       14  1840 William He~ Whig       0.796       0.529         0.0605 1.28e6
##  6       15  1844 James Polk  Dem.       0.618       0.495         0.0145 1.34e6
##  7       16  1848 Zachary Ta~ Whig       0.562       0.473         0.0479 1.36e6
##  8       17  1852 Franklin P~ Dem.       0.858       0.508         0.0695 1.61e6
##  9       18  1856 James Buch~ Dem.       0.588       0.453         0.122  1.84e6
## 10       19  1860 Abraham Li~ Rep.       0.594       0.396         0.101  1.86e6
## # i 39 more rows
## # i 11 more variables: margin <int>, runner_up <chr>, ru_part <chr>,
## #   turnout_pct <dbl>, winner_lname <chr>, winner_label <chr>, ru_lname <chr>,
## #   ru_label <chr>, two_term <lgl>, ec_votes <dbl>, ec_denom <dbl>
…
4. Reproduce pair of graphs using dplyr

gapminder

## # A tibble: 1,704 x 6
##    country     continent  year lifeExp      pop gdpPercap
##    <fct>       <fct>     <int>   <dbl>    <int>     <dbl>
##  1 Afghanistan Asia       1952    28.8  8425333      779.
##  2 Afghanistan Asia       1957    30.3  9240934      821.
##  3 Afghanistan Asia       1962    32.0 10267083      853.
##  4 Afghanistan Asia       1967    34.0 11537966      836.
##  5 Afghanistan Asia       1972    36.1 13079460      740.
##  6 Afghanistan Asia       1977    38.4 14880372      786.
##  7 Afghanistan Asia       1982    39.9 12881816      978.
##  8 Afghanistan Asia       1987    40.8 13867957      852.
##  9 Afghanistan Asia       1992    41.7 16317921      649.
## 10 Afghanistan Asia       1997    41.8 22227415      635.
## # i 1,694 more rows
…
7. Calculate the mean and median of children by degree

gss_sm

## # A tibble: 2,867 x 32
##     year    id ballot       age childs sibs   degree race  sex   region income16
##    <dbl> <dbl> <labelled> <dbl>  <dbl> <labe> <fct>  <fct> <fct> <fct>  <fct>   
##  1  2016     1 1             47      3 2      Bache~ White Male  New E~ $170000~
##  2  2016     2 2             61      0 3      High ~ White Male  New E~ $50000 ~
##  3  2016     3 3             72      2 3      Bache~ White Male  New E~ $75000 ~
##  4  2016     4 1             43      4 3      High ~ White Fema~ New E~ $170000~
##  5  2016     5 3             55      2 2      Gradu~ White Fema~ New E~ $170000~
##  6  2016     6 2             53      2 2      Junio~ White Fema~ New E~ $60000 ~
##  7  2016     7 1             50      2 2      High ~ White Male  New E~ $170000~
##  8  2016     8 3             23      3 6      High ~ Other Fema~ Middl~ $30000 ~
##  9  2016     9 1             45      3 5      High ~ Black Male  Middl~ $60000 ~
## 10  2016    10 3             71      4 1      Junio~ White Male  Middl~ $60000 ~
## # i 2,857 more rows
## # i 21 more variables: relig <fct>, marital <fct>, padeg <fct>, madeg <fct>,
## #   partyid <fct>, polviews <fct>, happy <fct>, partners <fct>, grass <fct>,
## #   zodiac <fct>, pres12 <labelled>, wtssall <dbl>, income_rc <fct>,
## #   agegrp <fct>, ageq <fct>, siblings <fct>, kids <fct>, religion <fct>,
## #   bigregion <fct>, partners_rc <fct>, obama <dbl>
…
## # A tibble: 6 x 3
##   degree           avg median
##   <fct>          <dbl>  <dbl>
## 1 Lt High School  2.81      3
## 2 High School     1.86      2
## 3 Junior College  1.77      2
## 4 Bachelor        1.45      1
## 5 Graduate        1.52      2
## 6 <NA>            3.6       4

8. gapminder new geoms

gapminder

## # A tibble: 1,704 x 6
##    country     continent  year lifeExp      pop gdpPercap
##    <fct>       <fct>     <int>   <dbl>    <int>     <dbl>
##  1 Afghanistan Asia       1952    28.8  8425333      779.
##  2 Afghanistan Asia       1957    30.3  9240934      821.
##  3 Afghanistan Asia       1962    32.0 10267083      853.
##  4 Afghanistan Asia       1967    34.0 11537966      836.
##  5 Afghanistan Asia       1972    36.1 13079460      740.
##  6 Afghanistan Asia       1977    38.4 14880372      786.
##  7 Afghanistan Asia       1982    39.9 12881816      978.
##  8 Afghanistan Asia       1987    40.8 13867957      852.
##  9 Afghanistan Asia       1992    41.7 16317921      649.
## 10 Afghanistan Asia       1997    41.8 22227415      635.
## # i 1,694 more rows
…
data2 = gapminder %>% group_by(year, continent) %>%
  summarize(avg = mean(lifeExp))
data2

## # A tibble: 60 x 3
## # Groups:   year [12]
##     year continent   avg
##    <int> <fct>     <dbl>
##  1  1952 Africa     39.1
##  2  1952 Americas   53.3
##  3  1952 Asia       46.3
##  4  1952 Europe     64.4
##  5  1952 Oceania    69.3
##  6  1957 Africa     41.3
##  7  1957 Americas   56.0
##  8  1957 Asia       49.3
##  9  1957 Europe     66.7
## 10  1957 Oceania    70.3
## # i 50 more rows
…
